-------------------------------------------------------------------------------
Test set: edu.lehigh.cse216.acd221.admin.AppTest
-------------------------------------------------------------------------------
Tests run: 1, Failures: 0, Errors: 0, Skipped: 0, Time elapsed: 0.007 sec
